<svg class='score-graph__graph' viewBox="-10 -10 220 220" version="1.1" xmlns="http://www.w3.org/2000/svg" xmlns:xlink="http://www.w3.org/1999/xlink" width="68px" height="68px">
  <!-- Generator: Sketch 42 (36781) - http://www.bohemiancoding.com/sketch -->
  <desc>Created with Sketch.</desc>
  <g id="GG-GRAPH" stroke="none" stroke-width="1" fill="none" fill-rule="evenodd">
    <ellipse id="Oval-300-Copy-6" stroke="#446ba8" stroke-width="18" stroke-linecap="none" stroke-dasharray="3500" opacity="1" cx="100" cy="100" rx="100" ry="100"></ellipse>
    <ellipse class="score-graph__progress--small" id="Oval-300-Copy-5" stroke="#FF2E63" stroke-width="18" stroke-linecap="none" stroke-linejoin="round" stroke-dasharray="628" stroke-dashoffset="628" cx="100" cy="100" rx="100" ry="100"  transform="rotate(-90, 100, 100)"></ellipse>
  </g>
</svg>
