<?xml version="1.0" encoding="UTF-8"?>
<svg width="200px" height="200px" viewBox="0 0 200 200" version="1.1" xmlns="http://www.w3.org/2000/svg" xmlns:xlink="http://www.w3.org/1999/xlink">
    <!-- Generator: Sketch 46.2 (44496) - http://www.bohemiancoding.com/sketch -->
    <title>img/congratulations</title>
    <desc>Created with Sketch.</desc>
    <defs></defs>
    <g id="Symbols" stroke="none" stroke-width="1" fill="none" fill-rule="evenodd">
        <g id="img/congratulations">
            <g id="New-Profile-Icon" transform="translate(0.000000, 8.000000)">
                <g id="Woman-Small" transform="translate(70.000000, 74.000000)">
                    <path d="M33.2568571,0.00378114318 C21.1946286,0.22409575 11.6571429,10.4204104 11.6571429,22.5676688 L11.6571429,52.1487699 L26.1984571,52.1487699 L26.1586286,48.2903654 C24.8258286,46.9201632 23.3725714,45.2059609 22.1485714,43.2163654 C19.1313143,38.3114665 17.9452,31.9271744 17.9452,25.7158486 L17.9452,25.2336688 L31.4373714,25.2336688 L31.2945714,18.7614441 C35.7019429,22.9193991 41.5159429,25.2336688 47.5553143,25.2336688 L49.9596,25.2336688 L49.9596,25.7158486 C49.9596,31.952298 48.5053714,38.2834441 45.4560571,43.1806126 C43.4403429,46.416725 40.6523429,48.9687025 38.9173714,50.4538935 L41.3954857,52.1487699 L55.6764571,52.1487699 L55.6764571,22.211107 C55.6764571,9.80681485 45.628,-0.223297509 33.2568571,0.00378114318" id="Fill-6" fill-opacity="0.5" fill="#D9D9D9"></path>
                    <polyline id="Fill-7" fill="#EAEAE9" points="16.5142857 70.1276854 23.9457143 70.1276854 21.5880571 66.6741573 20.3728 66.6741573 16.5142857 70.1276854"></polyline>
                    <polyline id="Fill-8" fill="#EAEAE9" points="50.1742857 70.1276854 42.7428571 70.1276854 45.1005143 66.6741573 46.3157714 66.6741573 50.1742857 70.1276854"></polyline>
                    <polyline id="Fill-9" fill="#EAEAE9" points="25.9458857 59.9101124 21.3714286 67.3940449 32.2339429 82.9349213 33.388 82.9349213 25.9458857 59.9101124"></polyline>
                    <polyline id="Fill-10" fill="#EAEAE9" points="41.1380571 54.1123596 45.9349714 59.0771685 50.5191429 70.0097978 49.3757714 70.0097978 46.5178286 67.1350787 45.3744571 67.1350787 40.8 59.6511461 41.1380571 54.1123596"></polyline>
                    <path d="M41.4566857,57.2170562 L41.4566857,48.9262697 L38.3617143,50.8520899 C37.5262857,51.3719551 36.5626286,51.6473483 35.5805143,51.6473483 L32.1309714,51.6473483 C30.8982286,51.6473483 29.7043429,51.2144494 28.7552571,50.4220899 L26.2285714,48.3146067 L26.2305143,51.576809 L41.4566857,57.2170562" id="Fill-11" fill="#EAEAE9"></path>
                    <path d="M34.8781714,52.569191 L31.3353714,52.569191 C29.8471429,52.569191 28.5366857,52.0918427 27.4399429,51.1487416 C25.5582857,49.5302022 22.8888,46.9076854 20.8594857,43.6106966 C17.2681143,37.7713933 16.5142857,30.5957079 16.5142857,25.6057753 L16.5142857,25.1235955 L18.4571429,25.1235955 L18.4571429,25.6057753 C18.4571429,30.3483371 19.1614286,37.1462022 22.5177143,42.6018876 C24.4158857,45.6872584 26.9328571,48.1580674 28.7105714,49.6867416 C29.444,50.316764 30.3270286,50.6366067 31.3353714,50.6366067 L34.8781714,50.6366067 C36.0361143,50.6366067 36.9764571,50.3360899 37.6729714,49.7427865 C38.7386286,48.8344719 41.9841714,46.072809 44.1698857,42.5613034 C46.9812,38.0487191 48.5286857,32.0267865 48.5286857,25.6057753 L48.5286857,25.1235955 L50.4715429,25.1235955 L50.4715429,25.6057753 C50.4715429,32.3814157 48.8201143,38.7647416 45.8222857,43.5797753 C43.4762857,47.3454157 40.0597714,50.2549213 38.9358286,51.2105843 C37.8779429,52.1121348 36.5130857,52.569191 34.8781714,52.569191" id="Fill-12" fill="#14284B"></path>
                    <polygon id="Fill-13" fill="#14284B" points="25.2571429 54.4302697 27.2 54.4302697 27.2 48.3146067 25.2571429 48.3146067"></polygon>
                    <polygon id="Fill-14" fill="#14284B" points="39.8285714 54.358764 41.7714286 54.358764 41.7714286 48.3146067 39.8285714 48.3146067"></polygon>
                    <path d="M67.2792,85.5719326 L65.3363429,85.5719326 L65.3363429,84.9477079 L64.8467429,74.9514157 C64.1657714,69.871618 60.7482857,65.5001124 55.9329143,63.623573 L45.6571429,59.786427 L46.3400571,57.9775281 L56.6294286,61.8185393 C62.1150857,63.9569438 65.9988571,68.9207865 66.7798857,74.7774831 L67.2792,85.5719326" id="Fill-15" fill="#14284B"></path>
                    <path d="M0,85.5719326 L0,84.9477079 L0.493485714,74.8567191 C1.28034286,68.9207865 5.16508571,63.9569438 10.6381143,61.8233708 L20.8915429,57.9775281 L21.5773714,59.7854607 L11.3356,63.6274382 C6.53188571,65.5001124 3.11342857,69.871618 2.42662857,75.0306517 L1.94188571,84.9950562 L1.94285714,85.5719326 L0,85.5719326 Z" id="Fill-16" fill="#14284B"></path>
                    <path d="M19.6228571,65.8392809 L21.6793714,65.8392809 L31.2479429,79.5287416 L24.7753143,59.4733483 L24.7753143,55.9193258 L21.4248571,59.2926517 L18.0064,67.4645843 L19.6228571,65.8392809 Z M34.51,83.3127416 L31.5277143,83.3127416 L20.6642286,67.7718652 L20.434,67.7718652 L17.5760571,70.6465843 L14.5714286,70.6465843 L19.7773143,58.2026742 L26.7181714,51.2134831 L26.7181714,59.1699326 L34.51,83.3127416 L34.51,83.3127416 Z" id="Fill-17" fill="#14284B"></path>
                    <path d="M41.7928,55.9251236 L41.7461714,59.6202247 L35.3192,79.5316404 L44.8887429,65.8421798 L46.9452571,65.8421798 L48.5578286,67.4655506 L45.1325714,59.2955506 L41.7928,55.9251236 Z M35.0404,83.3156404 L32.0571429,83.3156404 L39.8499429,59.1728315 L39.8499429,51.2134831 L46.7810857,58.205573 L51.9986286,70.6494831 L48.9901143,70.6494831 L46.1331429,67.774764 L45.9038857,67.774764 L35.0404,83.3156404 L35.0404,83.3156404 Z" id="Fill-18" fill="#14284B"></path>
                </g>
                <g id="leaves" transform="translate(154.500000, 113.500000) scale(-1, 1) translate(-154.500000, -113.500000) translate(121.000000, 42.000000)">
                    <path d="M11.7066933,63.458 L15.2226933,66.59 L16.1786933,59.948 C17.6706933,52.366 13.3716933,45.312 6.30769331,43.389 C5.19269331,50.542 7.13469331,57.8 11.7066933,63.458 Z M16.6726933,70.56 L10.2046933,64.781 C5.00169331,58.383 2.93169331,50.072 4.52569331,41.981 L4.71869331,41 L5.69969331,41.193 C14.4496933,42.917 19.9186933,51.303 18.1496933,60.284 L16.6726933,70.56 L16.6726933,70.56 Z" id="Fill-21-Copy-2" fill="#14284B"></path>
                    <path d="M2.109,77.0045917 C2.133,77.2915917 2.163,77.5785917 2.196,77.8615917 C3.207,86.3915917 9.035,93.8085917 17.452,97.3305917 L15.609,90.7065917 C15.439,86.8505917 13.862,83.3145917 11.167,80.7505917 C8.702,78.4045917 5.516,77.0955917 2.109,77.0045917 Z M20.479,100.690592 L17.182,99.3805917 C7.829,95.6685917 1.326,87.5145917 0.21,78.0985917 C0.13,77.4265917 0.075,76.7405917 0.044,76.0585917 L0,75.0605917 L0.999,75.0155917 C5.335,74.8275917 9.437,76.3445917 12.546,79.3025917 C15.589,82.1965917 17.382,86.1705917 17.602,90.5005917 L20.479,100.690592 L20.479,100.690592 Z" id="Fill-22-Copy-2" fill="#14284B"></path>
                    <path d="M6.447,112.717326 C11.098,118.083326 17.887,121.037326 25.624,121.051326 L30.174,120.429326 L25.687,115.352326 C20.702,109.369326 12.403,108.296326 6.447,112.717326 Z M25.676,123.051326 C17.146,123.051326 9.666,119.711326 4.612,113.645326 L4.499,113.510326 L4,112.123326 L4.538,111.675326 C11.389,105.972326 21.344,107.014326 27.204,114.050326 L34.148,121.904326 L25.693,123.051326 L25.676,123.051326 L25.676,123.051326 Z" id="Fill-23-Copy-2" fill="#14284B"></path>
                    <path d="M25.745,137.679035 C32.324,140.753035 39.858,140.910035 46.581,138.080035 L51.1,135.951035 L45.007,132.642035 C38.188,129.116035 29.611,131.436035 25.745,137.679035 Z M36.612,142.099035 C32.245,142.099035 27.89,141.061035 23.9,138.999035 L23,138.548035 L23.465,137.647035 C27.536,129.781035 37.83,126.678035 45.944,130.875035 L55.524,136.078035 L47.378,139.914035 C43.92,141.374035 40.262,142.099035 36.612,142.099035 L36.612,142.099035 Z" id="Fill-24-Copy-2" fill="#14284B"></path>
                    <path d="M23.5657701,17.748 C20.4017701,24.29 20.1517701,31.829 22.9057701,38.594 L24.4217701,42.746 L28.2247701,36.379 C31.8187701,29.646 29.7617701,21.649 23.5657701,17.748 Z M23.9837701,47.381 L21.0407701,39.314 C17.9427701,31.71 18.3867701,23.157 22.2717701,15.883 L22.7427701,15 L23.6247701,15.472 C31.4917701,19.672 34.2767701,29.288 29.9647701,37.363 L23.9837701,47.381 L23.9837701,47.381 Z" id="Fill-25-Copy-2" fill="#14284B"></path>
                    <path d="M53.474,2.809 C47.578,7.055 43.769,13.565 42.971,20.826 L42.453,25.54 L48.661,21.436 C55.066,17.201 57.067,9.188 53.474,2.809 Z M40,29.56 L40.983,20.607 C41.884,12.41 46.346,5.1 53.225,0.552 L54.059,0 L54.61,0.834 C59.529,8.273 57.4,18.055 49.764,23.104 L40,29.56 L40,29.56 Z" id="Fill-26-Copy-2" fill="#14284B"></path>
                    <path d="M66.1954973,139.053 C36.1714973,133.474 14.6424973,107.226 15.0044973,76.641 C15.2434973,56.509 25.2374973,37.578 41.7414973,26 L42.8894973,27.636 C26.9124973,38.846 17.2354973,57.175 17.0044973,76.665 C16.6534973,106.275 37.4954973,131.686 66.5614973,137.087 L66.1954973,139.053" id="Fill-27-Copy-2" fill="#14284B"></path>
                    <path d="M14.1977956,60.478 L13.7727956,63.435 L13.1607956,62.89 C9.54179558,58.35 7.74679558,52.714 8.02879558,47 C12.7037956,49.379 15.3327956,54.694 14.2237956,60.326 L14.1977956,60.478" id="Fill-28-Copy-2" fill="#BDDEE5"></path>
                    <path d="M14.173,90.831 L14.807,93.078 C9.717,89.757 6.163,84.711 5,79 C6.992,79.468 8.823,80.45 10.335,81.889 C12.653,84.094 14.01,87.146 14.157,90.483 L14.173,90.831" id="Fill-29-Copy" fill="#BDDEE5"></path>
                    <path d="M25.863,119.034309 C19.654,118.993309 14.125,116.913309 10,113.112309 C14.84,110.824309 20.762,112.105309 24.502,116.593309 L26.573,118.937309 L25.863,119.034309" id="Fill-30-Copy" fill="#BDDEE5"></path>
                    <path d="M44.172,134.441809 L46.743,135.837809 L45.834,136.266809 C40.428,138.531809 34.458,138.704809 29,136.827809 C32.736,132.936809 39.022,131.778809 44.172,134.441809" id="Fill-31-Copy" fill="#BDDEE5"></path>
                    <path d="M27.5218847,26.214 C28.3868847,29.271 28.0108847,32.566 26.4648847,35.497 L24.8558847,38.191 L24.7548847,37.918 C22.5318847,32.46 22.4308847,26.457 24.3948847,21 C25.8748847,22.42 26.9528847,24.201 27.5218847,26.214" id="Fill-32-Copy" fill="#BDDEE5"></path>
                    <path d="M52.786,6 C54.376,10.998 52.439,16.603 47.651,19.768 L45,21.521 L45.052,21.045 C45.695,15.189 48.463,9.863 52.786,6" id="Fill-33-Copy" fill="#BDDEE5"></path>
                </g>
                <g id="leaves-copy" transform="translate(18.000000, 42.000000)">
                    <path d="M11.7066933,63.458 L15.2226933,66.59 L16.1786933,59.948 C17.6706933,52.366 13.3716933,45.312 6.30769331,43.389 C5.19269331,50.542 7.13469331,57.8 11.7066933,63.458 Z M16.6726933,70.56 L10.2046933,64.781 C5.00169331,58.383 2.93169331,50.072 4.52569331,41.981 L4.71869331,41 L5.69969331,41.193 C14.4496933,42.917 19.9186933,51.303 18.1496933,60.284 L16.6726933,70.56 L16.6726933,70.56 Z" id="Fill-21-Copy-2" fill="#14284B"></path>
                    <path d="M2.109,77.0045917 C2.133,77.2915917 2.163,77.5785917 2.196,77.8615917 C3.207,86.3915917 9.035,93.8085917 17.452,97.3305917 L15.609,90.7065917 C15.439,86.8505917 13.862,83.3145917 11.167,80.7505917 C8.702,78.4045917 5.516,77.0955917 2.109,77.0045917 Z M20.479,100.690592 L17.182,99.3805917 C7.829,95.6685917 1.326,87.5145917 0.21,78.0985917 C0.13,77.4265917 0.075,76.7405917 0.044,76.0585917 L0,75.0605917 L0.999,75.0155917 C5.335,74.8275917 9.437,76.3445917 12.546,79.3025917 C15.589,82.1965917 17.382,86.1705917 17.602,90.5005917 L20.479,100.690592 L20.479,100.690592 Z" id="Fill-22-Copy-2" fill="#14284B"></path>
                    <path d="M6.447,112.717326 C11.098,118.083326 17.887,121.037326 25.624,121.051326 L30.174,120.429326 L25.687,115.352326 C20.702,109.369326 12.403,108.296326 6.447,112.717326 Z M25.676,123.051326 C17.146,123.051326 9.666,119.711326 4.612,113.645326 L4.499,113.510326 L4,112.123326 L4.538,111.675326 C11.389,105.972326 21.344,107.014326 27.204,114.050326 L34.148,121.904326 L25.693,123.051326 L25.676,123.051326 L25.676,123.051326 Z" id="Fill-23-Copy-2" fill="#14284B"></path>
                    <path d="M25.745,137.679035 C32.324,140.753035 39.858,140.910035 46.581,138.080035 L51.1,135.951035 L45.007,132.642035 C38.188,129.116035 29.611,131.436035 25.745,137.679035 Z M36.612,142.099035 C32.245,142.099035 27.89,141.061035 23.9,138.999035 L23,138.548035 L23.465,137.647035 C27.536,129.781035 37.83,126.678035 45.944,130.875035 L55.524,136.078035 L47.378,139.914035 C43.92,141.374035 40.262,142.099035 36.612,142.099035 L36.612,142.099035 Z" id="Fill-24-Copy-2" fill="#14284B"></path>
                    <path d="M23.5657701,17.748 C20.4017701,24.29 20.1517701,31.829 22.9057701,38.594 L24.4217701,42.746 L28.2247701,36.379 C31.8187701,29.646 29.7617701,21.649 23.5657701,17.748 Z M23.9837701,47.381 L21.0407701,39.314 C17.9427701,31.71 18.3867701,23.157 22.2717701,15.883 L22.7427701,15 L23.6247701,15.472 C31.4917701,19.672 34.2767701,29.288 29.9647701,37.363 L23.9837701,47.381 L23.9837701,47.381 Z" id="Fill-25-Copy-2" fill="#14284B"></path>
                    <path d="M53.474,2.809 C47.578,7.055 43.769,13.565 42.971,20.826 L42.453,25.54 L48.661,21.436 C55.066,17.201 57.067,9.188 53.474,2.809 Z M40,29.56 L40.983,20.607 C41.884,12.41 46.346,5.1 53.225,0.552 L54.059,0 L54.61,0.834 C59.529,8.273 57.4,18.055 49.764,23.104 L40,29.56 L40,29.56 Z" id="Fill-26-Copy-2" fill="#14284B"></path>
                    <path d="M15.0044973,76.641 C15.2434973,56.509 25.2374973,37.578 41.7414973,26 L42.8894973,27.636 C26.9124973,38.846 17.2354973,57.175 17.0044973,76.665 C16.6534973,106.275 37.4954973,131.686 66.5614973,137.087 L66.1954973,139.053 C36.1714973,133.474 14.6424973,107.226 15.0044973,76.641 Z" id="Fill-27-Copy-2" fill="#14284B"></path>
                    <path d="M14.1977956,60.478 L13.7727956,63.435 L13.1607956,62.89 C9.54179558,58.35 7.74679558,52.714 8.02879558,47 C12.7037956,49.379 15.3327956,54.694 14.2237956,60.326 L14.1977956,60.478" id="Fill-28-Copy-2" fill="#BDDEE5"></path>
                    <path d="M14.173,90.831 L14.807,93.078 C9.717,89.757 6.163,84.711 5,79 C6.992,79.468 8.823,80.45 10.335,81.889 C12.653,84.094 14.01,87.146 14.157,90.483 L14.173,90.831" id="Fill-29-Copy" fill="#BDDEE5"></path>
                    <path d="M25.863,119.034309 C19.654,118.993309 14.125,116.913309 10,113.112309 C14.84,110.824309 20.762,112.105309 24.502,116.593309 L26.573,118.937309 L25.863,119.034309" id="Fill-30-Copy" fill="#BDDEE5"></path>
                    <path d="M44.172,134.441809 L46.743,135.837809 L45.834,136.266809 C40.428,138.531809 34.458,138.704809 29,136.827809 C32.736,132.936809 39.022,131.778809 44.172,134.441809" id="Fill-31-Copy" fill="#BDDEE5"></path>
                    <path d="M27.5218847,26.214 C28.3868847,29.271 28.0108847,32.566 26.4648847,35.497 L24.8558847,38.191 L24.7548847,37.918 C22.5318847,32.46 22.4308847,26.457 24.3948847,21 C25.8748847,22.42 26.9528847,24.201 27.5218847,26.214" id="Fill-32-Copy" fill="#BDDEE5"></path>
                    <path d="M52.786,6 C54.376,10.998 52.439,16.603 47.651,19.768 L45,21.521 L45.052,21.045 C45.695,15.189 48.463,9.863 52.786,6" id="Fill-33-Copy" fill="#BDDEE5"></path>
                </g>
                <g id="Group" transform="translate(186.000000, 138.000000)" fill="#14284B">
                    <polygon id="Fill-44" points="6.053 14.051 8.053 14.051 8.053 10.051 6.053 10.051"></polygon>
                    <polygon id="Fill-45" points="6.053 4.051 8.053 4.051 8.053 0.051 6.053 0.051"></polygon>
                    <polygon id="Fill-46" points="0.053 8.051 4.053 8.051 4.053 6.051 0.053 6.051"></polygon>
                    <polygon id="Fill-47" points="10.053 8.051 14.053 8.051 14.053 6.051 10.053 6.051"></polygon>
                </g>
                <polygon id="Fill-48" fill="#14284B" points="138 122 140 122 140 118 138 118"></polygon>
                <polygon id="Fill-49" fill="#14284B" points="138 112 140 112 140 108 138 108"></polygon>
                <polygon id="Fill-50" fill="#14284B" points="132 116 136 116 136 114 132 114"></polygon>
                <polygon id="Fill-51" fill="#14284B" points="142 116 146 116 146 114 142 114"></polygon>
                <path d="M174,44 C174,41.79 175.791,40 178,40 C180.209,40 182,41.79 182,44 C182,46.209 180.209,48 178,48 C175.791,48 174,46.209 174,44" id="Fill-52" fill="#BDDEE5"></path>
                <path d="M100,4 C100,1.79 101.791,0 104,0 C106.209,0 108,1.79 108,4 C108,6.209 106.209,8 104,8 C101.791,8 100,6.209 100,4" id="Fill-52-Copy-2" fill="#F5CBD6"></path>
                <path d="M45,26.5 C45,25.11875 46.119375,24 47.5,24 C48.880625,24 50,25.11875 50,26.5 C50,27.880625 48.880625,29 47.5,29 C46.119375,29 45,27.880625 45,26.5" id="Fill-52-Copy" fill="#75C7D0"></path>
                <g id="engine" transform="translate(44.000000, 98.000000)">
                    <path d="M10.1234872,28.2171538 L12.0741026,28.8506667 L12.4453077,27.7092308 C12.8634103,26.4199487 14.0096154,25.5861282 15.3648718,25.5861282 L15.3656667,25.5861282 C16.7201282,25.5861282 17.8663333,26.418359 18.2852308,27.7068462 L18.6572308,28.8474872 L20.6070513,28.2131795 L20.2358462,27.0725385 C19.8169487,25.7840513 20.2541282,24.4367436 21.3502564,23.6394872 C22.4463846,22.8422308 23.863641,22.8430256 24.9597692,23.6378974 L25.9311026,24.3429487 L27.1361282,22.6832564 L26.1647949,21.9782051 C25.0678718,21.1817436 24.6298974,19.8344359 25.048,18.5459487 C25.4661026,17.2566667 26.6123077,16.423641 27.9675641,16.4228462 L29.1678205,16.4228462 L29.1678205,14.3712821 L27.9667692,14.3720769 C26.6115128,14.3720769 25.4653077,13.5398462 25.0464103,12.2505641 C24.6275128,10.9620769 25.0646923,9.61476923 26.1608205,8.81830769 L27.131359,8.11246154 L25.9605128,6.50284615 L24.9899744,7.20869231 C23.8930513,8.00594872 22.4773846,8.00435897 21.3812564,7.21028205 C20.2843333,6.41382051 19.8455641,5.06651282 20.2636667,3.77723077 L20.6340769,2.63579487 L18.6834615,2.00307692 L18.3130513,3.14451282 C17.8949487,4.433 16.7487436,5.26682051 15.3942821,5.26682051 L15.3926923,5.26682051 C14.0374359,5.26682051 12.8920256,4.43458974 12.4723333,3.14689744 L12.1011282,2.00625641 L10.1505128,2.6405641 L10.5225128,3.78120513 C10.9414103,5.07048718 10.5042308,6.41858974 9.40810256,7.21505128 C8.31197436,8.01071795 6.89551282,8.00992308 5.79858974,7.21584615 L4.82725641,6.51079487 L3.62223077,8.17128205 L4.5935641,8.87553846 C5.69048718,9.672 6.12846154,11.0201026 5.71035897,12.3085897 C5.29225641,13.5978718 4.14605128,14.4308974 2.79158974,14.4316923 L1.59053846,14.4324872 L1.59133333,16.4832564 L2.79238462,16.4824615 L2.79317949,16.4824615 C4.14764103,16.4824615 5.29384615,17.3146923 5.71274359,18.6031795 C6.1324359,19.8916667 5.69446154,21.2389744 4.59833333,22.0354359 L3.62779487,22.7420769 L4.79705128,24.3501026 L5.76838462,23.6442564 C6.86371795,22.847 8.28017949,22.8477949 9.37710256,23.6426667 C10.4740256,24.4391282 10.9127949,25.7864359 10.4938974,27.0757179 L10.1234872,28.2171538 Z M13.0955128,30.8537436 L8.12120513,29.239359 L8.98205128,26.5852821 C9.22687179,25.8301538 8.86441026,25.2347949 8.44312821,24.9295641 C8.02264103,24.6251282 7.34541026,24.4645641 6.70315385,24.930359 L4.44651282,26.5701795 L1.40692308,22.3907436 L3.6635641,20.7501282 C4.30502564,20.2835385 4.36225641,19.5888205 4.20089744,19.0944103 C4.04033333,18.6 3.58566667,18.0722051 2.79317949,18.0722051 L2.79238462,18.0722051 L0.00238461538,18.073 L0,12.8427436 L2.79079487,12.8419487 C3.58407692,12.8419487 4.03794872,12.313359 4.19851282,11.8181538 C4.35907692,11.3229487 4.30184615,10.6282308 3.65958974,10.1632308 L1.40215385,8.52341026 L4.47512821,4.29071795 L6.7325641,5.92894872 C7.37482051,6.39553846 8.05284615,6.23497436 8.47333333,5.92894872 C8.89382051,5.62371795 9.25548718,5.02835897 9.01066667,4.27323077 L8.1474359,1.61994872 L13.1209487,0.00158974359 L13.9841795,2.65487179 C14.2297949,3.40841026 14.8728462,3.67707692 15.3926923,3.67707692 L15.3934872,3.67707692 C15.9133333,3.67707692 16.5555897,3.40841026 16.8012051,2.65407692 L17.6620513,0 L22.6371538,1.61438462 L21.7763077,4.26766667 C21.5314872,5.02279487 21.8939487,5.61815385 22.3152308,5.92338462 C22.7357179,6.22861538 23.4129487,6.38917949 24.0552051,5.92338462 L26.3118462,4.28117949 L29.3522308,8.46379487 L27.0955897,10.1036154 C26.4541282,10.5702051 26.3968974,11.2649231 26.5582564,11.7593333 C26.7188205,12.2537436 27.1734872,12.7823333 27.9667692,12.7823333 L30.7567692,12.7815385 L30.758359,18.0125897 L27.968359,18.0125897 C27.1750769,18.0125897 26.7212051,18.5419744 26.5598462,19.0371795 C26.4000769,19.5315897 26.4565128,20.2255128 27.0987692,20.6913077 L29.357,22.3311282 L26.2832308,26.5630256 L24.0257949,24.9247949 C23.3835385,24.4582051 22.7047179,24.6187692 22.2842308,24.9255897 C21.8645385,25.2308205 21.5020769,25.8269744 21.7476923,26.5805128 L22.6109231,29.2337949 L17.6366154,30.8521538 L16.7733846,28.1988718 C16.5285641,27.4445385 15.8855128,27.1758718 15.3656667,27.1758718 C15.3656667,27.1758718 15.3656667,27.1758718 15.3648718,27.1758718 C14.8450256,27.1758718 14.2019744,27.4453333 13.9571538,28.1996667 L13.0955128,30.8537436 L13.0955128,30.8537436 Z" id="Fill-55" fill="#14284B"></path>
                    <path d="M15.699405,14.3071528 C15.6262768,14.3071528 15.5515589,14.3127169 15.4776358,14.3254349 C15.1111999,14.3834605 14.7900717,14.5813836 14.5722768,14.8818451 C14.354482,15.1815118 14.2678409,15.5487425 14.3258666,15.9151784 C14.3846871,16.2816143 14.5818153,16.6027425 14.8822768,16.8205374 C15.5022768,17.26964 16.3718666,17.1297425 16.8201743,16.5097425 C17.0379692,16.209281 17.125405,15.8428451 17.0673794,15.4764092 C17.0085589,15.1099733 16.8114307,14.78964 16.5109692,14.5718451 L16.5101743,14.5718451 C16.2717127,14.3985631 15.9895333,14.3071528 15.699405,14.3071528 Z M15.6898666,18.6749733 C15.0682768,18.6749733 14.4633794,18.4802297 13.9498922,18.1074349 C13.3052512,17.6408451 12.8815845,16.9516913 12.7559948,16.1655631 C12.630405,15.3802297 12.8179948,14.5933066 13.2853794,13.9486656 C13.7511743,13.3048195 14.441123,12.8811528 15.2264563,12.7547682 C16.0125845,12.6323579 16.7995076,12.8167682 17.4433538,13.2841528 C18.0871999,13.7507425 18.5116615,14.4398964 18.6372512,15.2260246 C18.7620461,16.0113579 18.5744563,16.798281 18.1078666,17.442922 C17.6412768,18.0867682 16.952123,18.5112297 16.1667897,18.6368195 C16.0078153,18.6614605 15.8480461,18.6749733 15.6898666,18.6749733 L15.6898666,18.6749733 Z" id="Fill-56" fill="#F5CBD6"></path>
                    <path d="M13.8309021,7.24058392 C13.7752611,6.80260956 14.0932098,6.41391725 14.5224405,6.36543007 C14.95962,6.30978904 15.3570559,6.61978904 15.4047482,7.06491725 C15.4524405,7.49414802 15.1424405,7.89158392 14.7052611,7.94007109 C14.6814149,7.94722494 14.64962,7.94722494 14.6178252,7.94722494 C14.2203893,7.94722494 13.8706457,7.64517366 13.8309021,7.24058392 Z M17.5032098,8.13878904 C17.0819277,8.02671212 16.81962,7.58953263 16.9388508,7.16825058 C17.0421841,6.73901981 17.4793636,6.48466084 17.9006457,6.59594289 C18.3298764,6.70722494 18.5842354,7.1451993 18.4729534,7.56568648 C18.3775687,7.92337879 18.05962,8.16184033 17.7019277,8.16184033 C17.638338,8.16184033 17.5667995,8.15389161 17.5032098,8.13878904 Z M10.9534662,8.43289161 C10.7467995,8.04260956 10.8978252,7.56568648 11.2873123,7.35901981 C11.6767995,7.15235315 12.1537226,7.30337879 12.3603893,7.69286597 C12.5670559,8.08235315 12.4160303,8.55927622 12.0265431,8.76673776 C11.9073123,8.83032751 11.7801329,8.86212238 11.6609021,8.86212238 C11.3747482,8.86212238 11.0965431,8.70235315 10.9534662,8.43289161 Z M20.0547482,9.3461993 C20.0547482,9.33825058 20.0467995,9.33825058 20.0467995,9.33109674 L20.0388508,9.33109674 C19.6811585,9.07594289 19.6016713,8.57517366 19.8560303,8.21748135 C20.118338,7.86853263 20.6111585,7.78030186 20.9688508,8.04260956 C20.9767995,8.05055827 20.992697,8.05850699 21.0006457,8.06725058 C21.3424405,8.3287634 21.4219277,8.8136352 21.1675687,9.16417366 C21.0085944,9.37799417 20.7701329,9.49722494 20.5237226,9.49722494 C20.3567995,9.49722494 20.1978252,9.44953263 20.0547482,9.3461993 Z M8.71192772,10.5782506 C8.37808157,10.2920967 8.3462867,9.79212238 8.63244054,9.45827622 C8.91859439,9.13237879 9.41936362,9.09184033 9.75320977,9.38594289 C10.0870559,9.67209674 10.1188508,10.172866 9.83269695,10.5067121 C9.6737226,10.6815839 9.45115849,10.7769685 9.22859439,10.7769685 C9.04577388,10.7769685 8.86295336,10.7133788 8.71192772,10.5782506 Z M21.9862867,11.3731224 C21.7478252,11.0074814 21.8511585,10.5146608 22.2247482,10.2761993 C22.5903893,10.0377378 23.0832098,10.1410711 23.3216713,10.5146608 C23.5601329,10.8803019 23.4567995,11.3731224 23.0832098,11.6123788 C22.9560303,11.6990198 22.8050046,11.7387634 22.653979,11.7387634 C22.39962,11.7387634 22.1373123,11.6123788 21.9862867,11.3731224 Z M7.38449183,13.3920967 C6.97115849,13.2490198 6.76449183,12.7879942 6.91551747,12.3754557 C6.91551747,12.3754557 6.91551747,12.3754557 6.91551747,12.3826096 C7.05859439,11.9613275 7.51167131,11.7546608 7.93295336,11.8977378 C8.33833798,12.0487634 8.55295336,12.5018403 8.40192772,12.9231224 C8.29064567,13.2410711 7.98064567,13.439789 7.66269695,13.439789 C7.56731234,13.439789 7.47987644,13.4238916 7.38449183,13.3920967 Z M23.0514149,13.9651993 C22.963979,13.5359685 23.2342354,13.1218403 23.6634662,13.0264557 C24.092697,12.9398147 24.513979,13.2172249 24.6093636,13.6464557 C24.6967995,14.0756865 24.4185944,14.4977634 23.9893636,14.5844044 C23.9337226,14.6003019 23.8780816,14.6003019 23.8303893,14.6003019 C23.4567995,14.6003019 23.1309021,14.3459429 23.0514149,13.9651993 Z M6.35910721,15.721866 C6.35115849,15.2838916 6.70090208,14.9182506 7.13808157,14.9103019 C7.57526106,14.8951993 7.94090208,15.244148 7.9488508,15.6813275 C7.96474824,16.1264557 7.61500465,16.4849429 7.17782516,16.5000455 L7.16192772,16.5000455 C6.72474824,16.5000455 6.37500465,16.1510967 6.35910721,15.721866 Z M23.7588508,17.6844044 C23.32962,17.612866 23.0355175,17.2082762 23.1070559,16.7703019 C23.1785944,16.3331224 23.5919277,16.0469685 24.0211585,16.1193019 C24.458338,16.1900455 24.7444918,16.5954301 24.6729534,17.0326096 C24.6093636,17.4220967 24.2755175,17.6923531 23.893979,17.6923531 C23.8462867,17.6923531 23.8065431,17.6923531 23.7588508,17.6844044 Z M7.05859439,19.0356865 C6.89167131,18.6303019 7.08244054,18.1613275 7.48782516,17.9944044 C7.89320977,17.8274814 8.36218413,18.0261993 8.52910721,18.4315839 C8.69603029,18.8369685 8.49731234,19.298789 8.09192772,19.4657121 C7.99654311,19.5046608 7.89320977,19.5293019 7.78987644,19.5293019 C7.47987644,19.5293019 7.18577388,19.3456865 7.05859439,19.0356865 Z M22.4234662,20.4910967 C22.0498764,20.2677378 21.922697,19.782866 22.1452611,19.4013275 C22.3757739,19.0277378 22.8606457,18.9013531 23.2342354,19.1231224 C23.6157739,19.3456865 23.7429534,19.838507 23.5124405,20.2120967 C23.3693636,20.4664557 23.0991072,20.6015839 22.8288508,20.6015839 C22.6937226,20.6015839 22.5506457,20.569789 22.4234662,20.4910967 Z M8.90269695,21.8733788 C8.60064567,21.5554301 8.60859439,21.0554557 8.92654311,20.7534044 C9.24449183,20.4505583 9.74526106,20.4593019 10.0473123,20.7764557 C10.3573123,21.0944044 10.3414149,21.6031224 10.0234662,21.9051737 C9.87244054,22.0490455 9.6737226,22.119789 9.47500465,22.119789 C9.26833798,22.119789 9.0537226,22.0403019 8.90269695,21.8733788 Z M20.173979,22.628507 C19.8957739,22.2867121 19.9593636,21.7859429 20.3011585,21.5164814 C20.6509021,21.2454301 21.1437226,21.3010711 21.4219277,21.6516096 C21.6921841,21.9926096 21.6365431,22.4933788 21.2867995,22.7636352 C21.1437226,22.8757121 20.9688508,22.9305583 20.793979,22.9305583 C20.5634662,22.9305583 20.3250046,22.8272249 20.173979,22.628507 Z M11.6450046,23.8605583 C11.2475687,23.6705839 11.0806457,23.2008147 11.2634662,22.8033788 C11.4542354,22.4059429 11.9311585,22.2310711 12.3285944,22.4218403 L12.3206457,22.4218403 C12.7180816,22.6126096 12.8929534,23.0815839 12.7021841,23.4790198 C12.5670559,23.7659685 12.2809021,23.9328916 11.9867995,23.9328916 C11.8675687,23.9328916 11.7562867,23.9082506 11.6450046,23.8605583 Z M17.2885944,23.8049172 C17.1614149,23.3836352 17.3998764,22.9393019 17.8211585,22.8113275 C18.2424405,22.684148 18.6875687,22.9226096 18.8147482,23.3438916 C18.9419277,23.7572249 18.7034662,24.2023531 18.2821841,24.3374814 C18.2106457,24.3621224 18.1311585,24.3692762 18.0516713,24.3692762 C17.7098764,24.3692762 17.3998764,24.1467121 17.2885944,23.8049172 Z M14.9198764,24.7190198 L14.9198764,24.7190198 C14.482697,24.6872249 14.1567995,24.3056865 14.1885944,23.8693019 C14.2124405,23.4313275 14.593979,23.0974814 15.0311585,23.1292762 C15.468338,23.1610711 15.8021841,23.5426096 15.7703893,23.979789 C15.7385944,24.4010711 15.3888508,24.7190198 14.9755175,24.7190198 L14.9198764,24.7190198 L14.9198764,24.7190198 Z" id="Fill-57" fill="#14284B"></path>
                </g>
                <g id="Group-2" transform="translate(0.000000, 134.000000)" fill="#14284B">
                    <polygon id="Fill-58" points="6 14 8 14 8 10 6 10"></polygon>
                    <polygon id="Fill-59" points="6 4 8 4 8 0 6 0"></polygon>
                    <polygon id="Fill-60" points="0 8 4 8 4 6 0 6"></polygon>
                    <polygon id="Fill-61" points="10 8 14 8 14 6 10 6"></polygon>
                </g>
                <polygon id="Fill-62" fill="#14284B" points="22 73 24 73 24 69 22 69"></polygon>
                <polygon id="Fill-63" fill="#14284B" points="22 63 24 63 24 59 22 59"></polygon>
                <polygon id="Fill-64" fill="#14284B" points="16 67 20 67 20 65 16 65"></polygon>
                <polygon id="Fill-65" fill="#14284B" points="26 67 30 67 30 65 26 65"></polygon>
                <g id="tick" transform="translate(76.000000, 5.000000)">
                    <path d="M2.824,34.505 L27.398,59.212 L78.516,7.948 L73.396,2.828 L27.394,48.83 L7.947,29.382 L2.824,34.505 Z M0,34.501 L7.947,26.554 L27.394,46.001 L73.396,0 L81.342,7.946 L27.396,62.046 L0,34.501 Z" id="Fill-37" fill="#14284B"></path>
                    <polygon id="Fill-38" fill="#F5CBD6" points="27.4 56.378 75.689 7.949 73.396 5.656 27.394 51.658 7.947 32.211 5.649 34.509"></polygon>
                </g>
            </g>
        </g>
    </g>
</svg>