<?xml version="1.0" encoding="UTF-8"?>
<svg width="150px" height="150px" viewBox="0 0 150 150" version="1.1" xmlns="http://www.w3.org/2000/svg" xmlns:xlink="http://www.w3.org/1999/xlink">
    <!-- Generator: Sketch 46.2 (44496) - http://www.bohemiancoding.com/sketch -->
    <title>img/show_your_diversity</title>
    <desc>Created with Sketch.</desc>
    <defs></defs>
    <g id="Symbols" stroke="none" stroke-width="1" fill="none" fill-rule="evenodd">
        <g id="img/show_your_diversity">
            <g id="Post-Icon" transform="translate(3.000000, 0.000000)">
                <g id="cc36">
                    <polygon id="Fill-1" fill="#14284B" points="64.5123913 133.171467 73.0350815 133.171467 73.0350815 131.59538 64.5123913 131.59538"></polygon>
                    <path d="M41.1327174,13.7765761 C40.6977174,13.7765761 40.3446739,13.4235326 40.3446739,12.9885326 C40.3446739,12.5527446 40.6977174,12.2004891 41.1327174,12.2004891 C41.5677174,12.2004891 41.9207609,12.5527446 41.9207609,12.9885326 C41.9207609,13.4235326 41.5677174,13.7765761 41.1327174,13.7765761 Z M37.9789674,13.7765761 C37.5439674,13.7765761 37.1909239,13.4235326 37.1909239,12.9885326 C37.1909239,12.5527446 37.5439674,12.2004891 37.9789674,12.2004891 C38.4139674,12.2004891 38.7670109,12.5527446 38.7670109,12.9885326 C38.7670109,13.4235326 38.4139674,13.7765761 37.9789674,13.7765761 Z M34.8244293,13.7765761 C34.3894293,13.7765761 34.0363859,13.4235326 34.0363859,12.9885326 C34.0363859,12.5527446 34.3894293,12.2004891 34.8244293,12.2004891 C35.2602174,12.2004891 35.6124728,12.5527446 35.6124728,12.9885326 C35.6124728,13.4235326 35.2602174,13.7765761 34.8244293,13.7765761 Z M32.4634511,14.9586413 L104.963451,14.9586413 L104.963451,10.2303804 L32.4634511,10.2303804 L32.4634511,14.9586413 Z" id="Fill-2" fill="#DBDBD5"></path>
                    <path d="M40.3446739,19.6869022 L78.1699728,19.6869022 L78.1699728,16.5347283 L40.3446739,16.5347283 L40.3446739,19.6869022 Z M32.4634511,21.2889946 L104.963451,21.2889946 L104.963451,14.9617935 L32.4634511,14.9617935 L32.4634511,21.2889946 Z" id="Fill-3" fill="#BDDEE5"></path>
                    <polyline id="Fill-4" fill="#DBDBD5" points="125.287092 94.0388043 113.021196 88.7825543 110.914755 90.0465761 117.401929 96.53375 115.173342 98.762337 108.781522 92.3713043 107.500951 94.9450543 112.857283 107.91625 116.666685 100.255679 122.246033 105.835815 124.550272 103.681304 118.799918 97.9317391 125.287092 94.0388043"></polyline>
                    <path d="M79.1792485,115.284457 L59.9506156,115.284457 L79.1792485,115.284457 Z" id="Fill-6" fill="#DBDBD5"></path>
                    <polygon id="Fill-7" fill="#DBDBD5" points="87.5421739 97.4376359 92.6565761 97.4376359 92.6565761 94.0277717 87.5421739 94.0277717"></polygon>
                    <path d="M88.3302174,96.6495924 L91.8685326,96.6495924 L91.8685326,94.8158152 L88.3302174,94.8158152 L88.3302174,96.6495924 Z M86.7541304,98.2256793 L93.4446196,98.2256793 L93.4446196,93.2397283 L86.7541304,93.2397283 L86.7541304,98.2256793 Z" id="Fill-8" fill="#DBDBD5"></path>
                    <polygon id="Fill-9" fill="#DBDBD5" points="44.8979891 97.4376359 50.0123913 97.4376359 50.0123913 94.0277717 44.8979891 94.0277717"></polygon>
                    <path d="M45.6860326,96.6495924 L49.2243478,96.6495924 L49.2243478,94.8158152 L45.6860326,94.8158152 L45.6860326,96.6495924 Z M44.1099457,98.2256793 L50.8004348,98.2256793 L50.8004348,93.2397283 L44.1099457,93.2397283 L44.1099457,98.2256793 Z" id="Fill-10" fill="#DBDBD5"></path>
                    <polygon id="Fill-11" fill="#DBDBD5" points="100.335272 104.260516 105.449674 104.260516 105.449674 100.850652 100.335272 100.850652"></polygon>
                    <path d="M101.123315,103.472473 L104.66163,103.472473 L104.66163,101.638696 L101.123315,101.638696 L101.123315,103.472473 Z M99.5472283,105.04856 L106.237717,105.04856 L106.237717,100.062609 L99.5472283,100.062609 L99.5472283,105.04856 Z" id="Fill-12" fill="#DBDBD5"></path>
                    <polygon id="Fill-13" fill="#DBDBD5" points="91.8062772 103.302255 96.9206793 103.302255 96.9206793 100.850652 91.8062772 100.850652"></polygon>
                    <path d="M92.5943207,102.780476 L96.1326359,102.780476 L96.1326359,101.318845 L92.5943207,101.318845 L92.5943207,102.780476 Z M91.0182337,104.036712 L97.7087228,104.036712 L97.7087228,100.062609 L91.0182337,100.062609 L91.0182337,104.036712 Z" id="Fill-14" fill="#DBDBD5"></path>
                    <polygon id="Fill-17" fill="#DBDBD5" points="74.7490761 104.260516 79.8626902 104.260516 79.8626902 100.850652 74.7490761 100.850652"></polygon>
                    <path d="M75.5371196,103.472473 L79.0746467,103.472473 L79.0746467,101.638696 L75.5371196,101.638696 L75.5371196,103.472473 Z M73.9610326,105.04856 L80.6507337,105.04856 L80.6507337,100.062609 L73.9610326,100.062609 L73.9610326,105.04856 Z" id="Fill-18" fill="#DBDBD5"></path>
                    <polygon id="Fill-19" fill="#DBDBD5" points="58.3404348 104.260516 62.8054891 104.260516 62.8054891 100.850652 58.3404348 100.850652"></polygon>
                    <path d="M58.7170797,103.29624 L62.0907736,103.29624 L62.0907736,101.557238 L58.7170797,101.557238 L58.7170797,103.29624 Z M58.0023641,104.79087 L63.5935326,104.79087 L63.5935326,100.062609 L58.0023641,100.062609 L58.0023641,104.79087 Z" id="Fill-20" fill="#DBDBD5"></path>
                    <polygon id="Fill-23" fill="#DBDBD5" points="40.6338859 104.260516 45.748288 104.260516 45.748288 100.850652 40.6338859 100.850652"></polygon>
                    <path d="M41.4219293,103.472473 L44.9602446,103.472473 L44.9602446,101.638696 L41.4219293,101.638696 L41.4219293,103.472473 Z M39.8458424,105.04856 L46.5363315,105.04856 L46.5363315,100.062609 L39.8458424,100.062609 L39.8458424,105.04856 Z" id="Fill-24" fill="#DBDBD5"></path>
                    <polygon id="Fill-25" fill="#DBDBD5" points="32.1048913 104.260516 37.2192935 104.260516 37.2192935 100.850652 32.1048913 100.850652"></polygon>
                    <path d="M32.8929348,103.472473 L36.43125,103.472473 L36.43125,101.638696 L32.8929348,101.638696 L32.8929348,103.472473 Z M31.3168478,105.04856 L38.007337,105.04856 L38.007337,100.062609 L31.3168478,100.062609 L31.3168478,105.04856 Z" id="Fill-26" fill="#DBDBD5"></path>
                    <path d="M27.6603261,58.1694293 L26.0842391,58.1694293 L26.0842391,36.9182609 C26.0842391,35.543913 27.2024728,34.4256793 28.5768207,34.4256793 L32.4634511,34.4256793 L32.4634511,36.0017663 L28.5768207,36.0017663 C28.0716848,36.0017663 27.6603261,36.412337 27.6603261,36.9182609 L27.6603261,58.1694293" id="Fill-39" fill="#14284B"></path>
                    <polygon id="Fill-40" fill="#14284B" points="109.455299 58.8274457 111.031386 58.8274457 111.031386 54.8533424 109.455299 54.8533424"></polygon>
                    <path d="M111.031386,43.8207337 L109.455299,43.8207337 L109.455299,36.9182609 C109.455299,36.412337 109.04394,36.0017663 108.538016,36.0017663 L104.963451,36.0017663 L104.963451,34.4256793 L108.538016,34.4256793 C109.913152,34.4256793 111.031386,35.543913 111.031386,36.9182609 L111.031386,43.8207337" id="Fill-41" fill="#14284B"></path>
                    <polygon id="Fill-42" fill="#DBDBD5" points="36.3689946 97.4376359 41.4833967 97.4376359 41.4833967 94.0277717 36.3689946 94.0277717"></polygon>
                    <path d="M37.157038,96.6495924 L40.6953533,96.6495924 L40.6953533,94.8158152 L37.157038,94.8158152 L37.157038,96.6495924 Z M35.5809511,98.2256793 L42.2714402,98.2256793 L42.2714402,93.2397283 L35.5809511,93.2397283 L35.5809511,98.2256793 Z" id="Fill-43" fill="#DBDBD5"></path>
                    <polygon id="Fill-44" fill="#DBDBD5" points="53.4269837 97.4376359 58.5405978 97.4376359 58.5405978 94.0277717 53.4269837 94.0277717"></polygon>
                    <path d="M54.2142391,96.6495924 L57.7533424,96.6495924 L57.7533424,94.8158152 L54.2142391,94.8158152 L54.2142391,96.6495924 Z M52.6381522,98.2256793 L59.3294293,98.2256793 L59.3294293,93.2397283 L52.6381522,93.2397283 L52.6381522,98.2256793 Z" id="Fill-45" fill="#DBDBD5"></path>
                    <polygon id="Fill-46" fill="#DBDBD5" points="61.9551902 97.4376359 67.0695924 97.4376359 67.0695924 94.0277717 61.9551902 94.0277717"></polygon>
                    <path d="M62.7440217,96.6495924 L66.2815489,96.6495924 L66.2815489,94.8158152 L62.7440217,94.8158152 L62.7440217,96.6495924 Z M61.1679348,98.2256793 L67.8576359,98.2256793 L67.8576359,93.2397283 L61.1679348,93.2397283 L61.1679348,98.2256793 Z" id="Fill-47" fill="#DBDBD5"></path>
                    <polygon id="Fill-48" fill="#DBDBD5" points="70.4841848 97.4376359 75.598587 97.4376359 75.598587 94.0277717 70.4841848 94.0277717"></polygon>
                    <path d="M71.2722283,96.6495924 L74.8105435,96.6495924 L74.8105435,94.8158152 L71.2722283,94.8158152 L71.2722283,96.6495924 Z M69.6961413,98.2256793 L76.3866304,98.2256793 L76.3866304,93.2397283 L69.6961413,93.2397283 L69.6961413,98.2256793 Z" id="Fill-49" fill="#DBDBD5"></path>
                    <polygon id="Fill-50" fill="#DBDBD5" points="79.0131793 97.4376359 84.1275815 97.4376359 84.1275815 94.0277717 79.0131793 94.0277717"></polygon>
                    <path d="M79.8012228,96.6495924 L83.339538,96.6495924 L83.339538,94.8158152 L79.8012228,94.8158152 L79.8012228,96.6495924 Z M78.2251359,98.2256793 L84.915625,98.2256793 L84.915625,93.2397283 L78.2251359,93.2397283 L78.2251359,98.2256793 Z" id="Fill-51" fill="#DBDBD5"></path>
                    <polygon id="Fill-52" fill="#DBDBD5" points="96.0711685 97.4376359 101.184783 97.4376359 101.184783 94.0277717 96.0711685 94.0277717"></polygon>
                    <path d="M96.859212,96.6495924 L100.396739,96.6495924 L100.396739,94.8158152 L96.859212,94.8158152 L96.859212,96.6495924 Z M95.283125,98.2256793 L101.972826,98.2256793 L101.972826,93.2397283 L95.283125,93.2397283 L95.283125,98.2256793 Z" id="Fill-53" fill="#DBDBD5"></path>
                    <polygon id="Fill-54" fill="#DBDBD5" points="66.2200815 104.260516 71.3344837 104.260516 71.3344837 100.850652 66.2200815 100.850652"></polygon>
                    <path d="M67.008125,103.472473 L70.5464402,103.472473 L70.5464402,101.638696 L67.008125,101.638696 L67.008125,103.472473 Z M65.432038,105.04856 L72.1225272,105.04856 L72.1225272,100.062609 L65.432038,100.062609 L65.432038,105.04856 Z" id="Fill-55" fill="#DBDBD5"></path>
                    <polygon id="Fill-56" fill="#DBDBD5" points="61.9551902 111.083397 67.0695924 111.083397 67.0695924 107.674321 61.9551902 107.674321"></polygon>
                    <path d="M62.7440217,110.295353 L66.2815489,110.295353 L66.2815489,108.461576 L62.7440217,108.461576 L62.7440217,110.295353 Z M61.1679348,111.87144 L67.8576359,111.87144 L67.8576359,106.885489 L61.1679348,106.885489 L61.1679348,111.87144 Z" id="Fill-57" fill="#DBDBD5"></path>
                    <polygon id="Fill-58" fill="#DBDBD5" points="70.4841848 111.083397 75.598587 111.083397 75.598587 107.674321 70.4841848 107.674321"></polygon>
                    <path d="M71.2722283,110.295353 L74.8105435,110.295353 L74.8105435,108.461576 L71.2722283,108.461576 L71.2722283,110.295353 Z M69.6961413,111.87144 L76.3866304,111.87144 L76.3866304,106.885489 L69.6961413,106.885489 L69.6961413,111.87144 Z" id="Fill-59" fill="#DBDBD5"></path>
                    <polygon id="Fill-60" fill="#14284B" points="24.449837 126.353315 33.2514946 126.353315 33.2514946 124.777228 24.449837 124.777228"></polygon>
                    <polygon id="Fill-61" fill="#434A4F" points="105.617527 126.353315 113.096848 126.353315 113.096848 124.777228 105.617527 124.777228"></polygon>
                    <polygon id="Fill-62" fill="#14284B" points="67.0688043 128.057853 70.4786685 128.057853 70.4786685 126.481766 67.0688043 126.481766"></polygon>
                    <polyline id="Fill-63" fill="#D9D9D9" points="103.387364 149.808128 103.319592 140.527065 79.3047554 140.64042 79.3725272 149.92212 103.387364 149.808128"></polyline>
                    <polygon id="Fill-64" fill="#D9D9D9" points="35.4186141 149.865442 59.4342391 149.865442 59.4342391 140.583742 35.4186141 140.583742"></polygon>
                    <path d="M99.9010598,141.385245 C99.4652717,141.385245 99.1130163,141.032989 99.1130163,140.597201 L99.1130163,137.31106 C99.0909511,137.191277 99.0680978,136.974565 99.1650272,136.721603 C101.120951,131.661576 102.113098,126.526685 102.113098,121.457989 L102.113098,109.722446 C102.113098,108.611304 101.194239,107.592364 100.146929,107.540353 C99.5716576,107.501739 99.0279076,107.712147 98.6149728,108.10538 C98.291875,108.413505 98.0798913,108.805951 97.9995109,109.237011 L97.9616848,118.201793 C97.9601087,118.636005 97.6070652,118.986685 97.1736413,118.986685 L97.1720652,118.986685 C96.7370652,118.986685 96.3855978,118.633641 96.3855978,118.198641 L96.3863859,109.638913 C96.3863859,109.463179 96.3989946,109.287446 96.4234239,109.114864 L96.4336685,106.750734 C96.4336685,105.617527 95.5888859,104.164375 94.540788,104.063505 C93.9379348,104.013071 93.362663,104.196685 92.9197826,104.600163 C92.4824185,104.998125 92.2310326,105.564728 92.2310326,106.154973 L92.2310326,118.198641 C92.2310326,118.634429 91.8779891,118.986685 91.4429891,118.986685 C91.0072011,118.986685 90.6549457,118.634429 90.6549457,118.198641 L90.6549457,103.615109 C90.6549457,102.526821 89.7597283,101.49606 88.74,101.409375 C88.1190217,101.355 87.4948913,101.571712 87.0291576,102.000408 C86.5894293,102.404674 86.346712,102.937391 86.346712,103.502418 L86.346712,118.198641 C86.346712,118.634429 85.9944565,118.986685 85.5586685,118.986685 C85.1236685,118.986685 84.770625,118.634429 84.770625,118.198641 L84.770625,105.925652 C84.770625,104.80269 83.9865217,103.833397 82.9463043,103.670272 C82.3190217,103.571766 81.7106522,103.73962 81.235462,104.145462 C80.7665761,104.545788 80.4986413,105.12894 80.4986413,105.744402 L80.4986413,124.59125 C80.4986413,125.027038 80.1455978,125.379293 79.7105978,125.379293 C79.2748098,125.379293 78.9225543,125.027038 78.9225543,124.59125 L78.9225543,119.750299 C78.9225543,118.600543 77.9863587,117.665924 76.8366033,117.665924 C76.2778804,117.665924 75.7530435,117.883424 75.3590217,118.27981 C74.965,118.676196 74.7490761,119.201821 74.7514402,119.760543 L74.7687772,123.613288 C74.7151902,126.978234 75.4630435,129.052364 77.4386685,131.027989 L81.2803804,135.522989 C81.7697554,136.009212 82.1700815,136.976141 82.1700815,137.726359 L82.1700815,140.597201 C82.1700815,141.032989 81.817038,141.385245 81.382038,141.385245 C80.947038,141.385245 80.5939946,141.032989 80.5939946,140.597201 L80.5939946,137.726359 C80.5939946,137.39144 80.3615217,136.828777 80.1235326,136.591576 L76.2826087,132.096576 C74.0390489,129.856957 73.1320109,127.384076 73.1926902,123.603832 L73.1753533,119.768424 C73.170625,118.78731 73.5496739,117.863723 74.2423641,117.16788 C74.9334783,116.472826 75.8554891,116.089837 76.8366033,116.089837 C77.61125,116.089837 78.3299457,116.330978 78.9225543,116.743125 L78.9225543,105.744402 C78.9225543,104.667147 79.3922283,103.648207 80.2110054,102.947636 C81.0297826,102.247853 82.1149185,101.947609 83.1913859,102.11231 C83.8029076,102.208451 84.3639946,102.462201 84.8368207,102.828641 C84.9857609,102.077636 85.3782065,101.377065 85.9629348,100.838832 C86.7533424,100.113832 87.8179891,99.7489674 88.8731793,99.8395924 C90.5461957,99.9814402 91.9796467,101.452717 92.201875,103.158832 C92.9182065,102.649755 93.8039674,102.404674 94.6905163,102.495299 C96.5857609,102.676549 97.9238587,104.75462 98.0058152,106.57894 C98.653587,106.142364 99.4227174,105.928016 100.224946,105.965842 C102.102853,106.058832 103.689185,107.77913 103.689185,109.722446 L103.689185,121.457989 C103.689185,126.680353 102.678125,131.964973 100.682799,137.166848 C100.686739,137.19837 100.689103,137.227527 100.689103,137.24644 L100.689103,140.597201 C100.689103,141.032989 100.33606,141.385245 99.9010598,141.385245" id="Fill-65" fill="#14284B"></path>
                    <path d="M82.921875,121.344511 C82.7091033,121.344511 82.5120924,121.264918 82.3623641,121.115978 C82.2914402,121.036386 82.2283967,120.950489 82.1889946,120.855924 C82.1495924,120.760571 82.1338315,120.658913 82.1338315,120.556467 C82.1338315,120.351576 82.2205163,120.145897 82.3623641,119.996957 C82.433288,119.926033 82.5199728,119.87087 82.6224185,119.831467 C82.9061141,119.70538 83.2607337,119.775516 83.4813859,119.996957 C83.6232337,120.145897 83.7099185,120.351576 83.7099185,120.556467 C83.7099185,120.658913 83.6862772,120.760571 83.646875,120.855924 C83.6074728,120.950489 83.5523098,121.036386 83.4813859,121.115978 C83.3237772,121.264918 83.1267663,121.344511 82.921875,121.344511" id="Fill-66" fill="#14284B"></path>
                    <path d="M88.7061141,121.344511 C88.4933424,121.344511 88.2963315,121.264918 88.1466033,121.115978 C88.0756793,121.036386 88.0126359,120.950489 87.9732337,120.855924 C87.9338315,120.760571 87.9180707,120.658913 87.9180707,120.556467 C87.9180707,120.351576 87.996875,120.145897 88.1466033,119.996957 C88.4381793,119.70538 88.9661685,119.70538 89.2577446,119.996957 C89.4074728,120.145897 89.4941576,120.351576 89.4941576,120.556467 C89.4941576,120.658913 89.4705163,120.760571 89.4311141,120.855924 C89.391712,120.950489 89.3365489,121.036386 89.2577446,121.115978 C89.1080163,121.264918 88.9110054,121.344511 88.7061141,121.344511" id="Fill-67" fill="#14284B"></path>
                    <path d="M94.4903533,121.344511 C94.2775815,121.344511 94.0805707,121.264918 93.9308424,121.115978 C93.7811141,120.965462 93.6944293,120.760571 93.6944293,120.556467 C93.6944293,120.351576 93.7811141,120.145897 93.9308424,119.996957 C93.9623641,119.965435 94.0017663,119.926033 94.0490489,119.902391 C94.0884511,119.87087 94.1357337,119.84644 94.1830163,119.831467 C94.2302989,119.807038 94.285462,119.792065 94.3327446,119.783397 C94.5927989,119.729022 94.8607337,119.814918 95.0419837,119.996957 C95.1129076,120.074973 95.1759511,120.154565 95.2153533,120.257011 C95.2547554,120.351576 95.2705163,120.454022 95.2705163,120.556467 C95.2705163,120.658913 95.2547554,120.760571 95.2153533,120.855924 C95.1759511,120.950489 95.120788,121.036386 95.0419837,121.115978 C94.8922554,121.264918 94.6952446,121.344511 94.4903533,121.344511" id="Fill-68" fill="#14284B"></path>
                    <path d="M100.266712,121.344511 C100.061821,121.344511 99.8648098,121.264918 99.7072011,121.115978 C99.6362772,121.036386 99.5811141,120.950489 99.541712,120.855924 C99.5023098,120.760571 99.4786685,120.658913 99.4786685,120.556467 C99.4786685,120.351576 99.5653533,120.145897 99.7072011,119.996957 C99.7860054,119.926033 99.8726902,119.87087 99.9672554,119.831467 C100.258832,119.70538 100.605571,119.775516 100.826223,119.996957 C100.975951,120.145897 101.054755,120.351576 101.054755,120.556467 C101.054755,120.658913 101.038995,120.760571 100.999592,120.855924 C100.96019,120.950489 100.897147,121.036386 100.826223,121.115978 C100.676495,121.264918 100.479484,121.344511 100.266712,121.344511" id="Fill-69" fill="#14284B"></path>
                    <polygon id="Fill-70" fill="#14284B" points="79.2574728 141.385245 103.273098 141.385245 103.273098 139.809158 79.2574728 139.809158"></polygon>
                    <path d="M97.1775815,147.096984 C96.9648098,147.096984 96.7677989,147.010299 96.6180707,146.861359 C96.5392663,146.790435 96.4841033,146.702962 96.4447011,146.608397 C96.4052989,146.513832 96.389538,146.411386 96.389538,146.30894 C96.389538,146.199402 96.4052989,146.104837 96.4447011,146.002391 C96.4841033,145.907826 96.5471467,145.820353 96.6180707,145.749429 C96.6889946,145.679293 96.7756793,145.615462 96.8702446,145.576848 C97.1618207,145.457853 97.5164402,145.528777 97.729212,145.749429 C97.8080163,145.820353 97.8631793,145.907826 97.9025815,146.002391 C97.9419837,146.104837 97.965625,146.199402 97.965625,146.30894 C97.965625,146.411386 97.9419837,146.513832 97.9025815,146.608397 C97.8631793,146.702962 97.8080163,146.790435 97.729212,146.861359 C97.5794837,147.010299 97.3824728,147.096984 97.1775815,147.096984" id="Fill-71" fill="#14284B"></path>
                    <path d="M57.3096739,141.385245 C56.8738859,141.385245 56.5216304,141.032989 56.5216304,140.597201 L56.5216304,137.726359 C56.5216304,136.976141 56.9219565,136.009212 57.4523098,135.477283 L61.2104891,131.072908 C63.2278804,129.052364 63.9765217,126.978234 63.9221467,123.629837 L63.9402717,119.760543 C63.9426359,119.201821 63.726712,118.676196 63.3326902,118.27981 C62.9386685,117.883424 62.4138315,117.665924 61.8543207,117.665924 C60.7045652,117.665924 59.7691576,118.600543 59.7691576,119.750299 L59.7691576,124.59125 C59.7691576,125.027038 59.4169022,125.379293 58.9811141,125.379293 C58.5461141,125.379293 58.1930707,125.027038 58.1930707,124.59125 L58.1930707,105.744402 C58.1930707,105.12894 57.9243478,104.545788 57.45625,104.145462 C56.9810598,103.73962 56.3711141,103.567038 55.7454076,103.670272 C54.7099185,103.832609 53.9281793,104.793234 53.9202989,105.908315 L53.9202989,118.198641 C53.9202989,118.634429 53.5680435,118.986685 53.1322554,118.986685 C52.6972554,118.986685 52.344212,118.634429 52.344212,118.198641 L52.344212,105.925652 L52.344212,105.903587 L52.344212,103.502418 C52.344212,102.937391 52.1014946,102.404674 51.6617663,102.000408 C51.1960326,101.5725 50.5774185,101.355788 49.9509239,101.409375 C48.9311957,101.49606 48.0367663,102.526821 48.0367663,103.615109 L48.0367663,118.198641 C48.0367663,118.634429 47.6837228,118.986685 47.2487228,118.986685 C46.8137228,118.986685 46.4606793,118.634429 46.4606793,118.198641 L46.4606793,106.154973 C46.4606793,105.564728 46.2092935,104.998125 45.7727174,104.600163 C45.3290489,104.197473 44.7522011,104.011495 44.1493478,104.063505 C43.102038,104.164375 42.2580435,105.617527 42.2580435,106.753886 L42.2675,109.111712 C42.2927174,109.28587 42.3053261,109.462391 42.3053261,109.638913 L42.3053261,118.198641 C42.3053261,118.633641 41.9538587,118.986685 41.5188587,118.986685 L41.5172826,118.986685 C41.0830707,118.986685 40.7316033,118.636005 40.7292391,118.201793 L40.6922011,109.234647 C40.6110326,108.804375 40.3990489,108.412717 40.0767391,108.10538 C39.6638043,107.712935 39.1263587,107.504103 38.5447826,107.540353 C37.4974728,107.592364 36.5786141,108.611304 36.5786141,109.722446 L36.5786141,121.457989 C36.5786141,126.525897 37.5699728,131.660788 39.5258967,136.720815 C39.6244022,136.977717 39.5999728,137.196793 39.5786957,137.31106 L39.5786957,140.597201 C39.5786957,141.032989 39.2256522,141.385245 38.7906522,141.385245 C38.3556522,141.385245 38.0026087,141.032201 38.0026087,140.597201 L38.0026087,137.24644 C38.0026087,137.225163 38.0049728,137.196005 38.008125,137.165272 C36.013587,131.963397 35.0025272,126.679565 35.0025272,121.457989 L35.0025272,109.722446 C35.0025272,107.77913 36.5888587,106.058832 38.4667663,105.965842 C39.2721467,105.929592 40.038125,106.142364 40.6858967,106.57894 C40.7678533,104.752255 42.1059511,102.675761 44.0004076,102.495299 C44.8877446,102.404674 45.7735054,102.649755 46.489837,103.158832 C46.7112772,101.452717 48.1455163,99.9814402 49.8177446,99.8395924 C50.877663,99.7481793 51.9383696,100.113832 52.7279891,100.838832 C53.3135054,101.377065 53.705163,102.077636 53.8541033,102.829429 C54.3277174,102.462201 54.8880163,102.209239 55.5003261,102.11231 C56.5744293,101.944457 57.6619293,102.247853 58.4807065,102.947636 C59.2994837,103.648207 59.7691576,104.667147 59.7691576,105.744402 L59.7691576,116.743125 C60.3617663,116.330978 61.080462,116.089837 61.8543207,116.089837 C62.8354348,116.089837 63.7574457,116.472826 64.4501359,117.16788 C65.142038,117.863723 65.521087,118.78731 65.5163587,119.768424 L65.4982337,123.62038 C65.5597011,127.384076 64.652663,129.856957 62.367337,132.142283 L58.6091576,136.546658 C58.3301902,136.828777 58.0977174,137.390652 58.0977174,137.726359 L58.0977174,140.597201 C58.0977174,141.032989 57.7446739,141.385245 57.3096739,141.385245" id="Fill-72" fill="#14284B"></path>
                    <path d="M38.7677989,121.344511 C38.5550272,121.344511 38.3580163,121.264918 38.208288,121.115978 C38.1294837,121.036386 38.0743207,120.950489 38.0349185,120.855924 C37.9955163,120.760571 37.9797554,120.658913 37.9797554,120.556467 C37.9797554,120.351576 38.0585598,120.145897 38.208288,119.996957 C38.279212,119.926033 38.3658967,119.87087 38.460462,119.831467 C38.752038,119.70538 39.0987772,119.775516 39.3194293,119.996957 C39.4691576,120.145897 39.5558424,120.351576 39.5558424,120.556467 C39.5558424,120.658913 39.5322011,120.760571 39.4927989,120.855924 C39.4533967,120.950489 39.3982337,121.036386 39.3194293,121.115978 C39.1697011,121.264918 38.9726902,121.344511 38.7677989,121.344511" id="Fill-73" fill="#14284B"></path>
                    <path d="M44.5433696,121.344511 C44.441712,121.344511 44.3392663,121.320082 44.2447011,121.281467 C44.1493478,121.242065 44.0634511,121.186114 43.9925272,121.115978 C43.9137228,121.036386 43.8585598,120.950489 43.8191576,120.855924 C43.7797554,120.760571 43.7553261,120.658913 43.7553261,120.556467 C43.7553261,120.454022 43.7797554,120.351576 43.8191576,120.257011 C43.8585598,120.154565 43.9137228,120.074973 43.9925272,119.996957 C44.1737772,119.814918 44.441712,119.729022 44.7017663,119.783397 C44.7490489,119.792065 44.804212,119.807038 44.8514946,119.831467 C44.8987772,119.84644 44.9373913,119.87087 44.985462,119.902391 C45.0248641,119.926033 45.0642663,119.965435 45.1036685,119.996957 C45.2533967,120.145897 45.331413,120.351576 45.331413,120.556467 C45.331413,120.658913 45.3164402,120.760571 45.277038,120.855924 C45.2376359,120.950489 45.1745924,121.036386 45.1036685,121.115978 C44.9539402,121.264918 44.7561413,121.344511 44.5433696,121.344511" id="Fill-74" fill="#14284B"></path>
                    <path d="M50.3283967,121.344511 C50.1235054,121.344511 49.9264946,121.264918 49.7688859,121.115978 C49.697962,121.036386 49.6427989,120.950489 49.6033967,120.855924 C49.5639946,120.760571 49.5403533,120.658913 49.5403533,120.556467 C49.5403533,120.454022 49.5639946,120.351576 49.6033967,120.257011 C49.6427989,120.154565 49.697962,120.074973 49.7688859,119.996957 C50.0683424,119.70538 50.5963315,119.70538 50.8879076,119.996957 C51.0297554,120.145897 51.1164402,120.351576 51.1164402,120.556467 C51.1164402,120.658913 51.1006793,120.760571 51.0533967,120.855924 C51.0139946,120.950489 50.9588315,121.036386 50.8879076,121.115978 C50.7381793,121.264918 50.5411685,121.344511 50.3283967,121.344511" id="Fill-75" fill="#14284B"></path>
                    <path d="M56.1126359,121.344511 C55.8998641,121.344511 55.7028533,121.264918 55.553125,121.115978 C55.4822011,121.036386 55.4191576,120.950489 55.3797554,120.855924 C55.3403533,120.760571 55.3245924,120.658913 55.3245924,120.556467 C55.3245924,120.351576 55.4112772,120.145897 55.553125,119.996957 C55.6240489,119.926033 55.7107337,119.87087 55.8131793,119.831467 C56.096875,119.70538 56.4514946,119.775516 56.6721467,119.996957 C56.8139946,120.145897 56.9006793,120.351576 56.9006793,120.556467 C56.9006793,120.658913 56.877038,120.760571 56.8376359,120.855924 C56.7982337,120.950489 56.7430707,121.036386 56.6721467,121.115978 C56.514538,121.264918 56.3175272,121.344511 56.1126359,121.344511" id="Fill-76" fill="#14284B"></path>
                    <polygon id="Fill-77" fill="#14284B" points="35.4186141 141.385245 59.4342391 141.385245 59.4342391 139.809158 35.4186141 139.809158"></polygon>
                    <path d="M41.5180707,147.096984 C41.3052989,147.096984 41.108288,147.010299 40.9585598,146.861359 C40.8876359,146.790435 40.8324728,146.702962 40.7930707,146.608397 C40.7536685,146.513832 40.7300272,146.411386 40.7300272,146.30894 C40.7300272,146.199402 40.7536685,146.104837 40.7930707,146.002391 C40.8324728,145.907826 40.8876359,145.820353 40.9585598,145.749429 C41.179212,145.528777 41.5259511,145.457853 41.8175272,145.576848 C41.9120924,145.615462 41.9987772,145.679293 42.0775815,145.749429 C42.1485054,145.820353 42.2036685,145.907826 42.2430707,146.002391 C42.2824728,146.104837 42.3061141,146.199402 42.3061141,146.30894 C42.3061141,146.411386 42.2824728,146.513832 42.2430707,146.608397 C42.2036685,146.702962 42.1485054,146.790435 42.0775815,146.861359 C41.9278533,147.010299 41.7308424,147.096984 41.5180707,147.096984" id="Fill-78" fill="#14284B"></path>
                    <polygon id="Fill-79" fill="#14284B" points="105.107663 62.693587 116.916495 62.693587 116.916495 61.1175 105.107663 61.1175"></polygon>
                    <polygon id="Fill-80" fill="#14284B" points="18.3700815 62.693587 32.5454076 62.693587 32.5454076 61.1175 18.3700815 61.1175"></polygon>
                    <path d="M122.125462,65.8686141 L105.107663,65.8678261 L105.107663,64.2917391 L122.125462,64.2925272 C123.429674,64.2925272 124.489592,63.2326087 124.489592,61.9283967 C124.489592,60.6249728 123.429674,59.5642663 122.125462,59.5642663 L105.107663,59.5642663 L105.107663,57.9881793 L122.125462,57.9881793 C124.298098,57.9881793 126.065679,59.7557609 126.065679,61.9283967 C126.065679,64.1010326 124.298098,65.8686141 122.125462,65.8686141" id="Fill-81" fill="#14284B"></path>
                    <polygon id="Fill-82" fill="#14284B" points="116.128451 65.0805707 117.704538 65.0805707 117.704538 59.0930163 116.128451 59.0930163"></polygon>
                    <polyline id="Fill-83" fill="#14284B" points="32.5454076 65.8686141 17.5914946 65.8678261 9.04673913 61.9276087 17.5914946 57.9881793 32.5454076 57.9881793 32.5454076 59.5642663 17.9374457 59.5642663 12.8104348 61.9276087 17.9374457 64.2917391 32.5454076 64.2925272 32.5454076 65.8686141"></polyline>
                    <polygon id="Fill-84" fill="#14284B" points="104.175408 40.274538 105.751495 40.274538 105.751495 10.2303804 104.175408 10.2303804"></polygon>
                    <polygon id="Fill-85" fill="#14284B" points="104.175408 49.337038 105.751495 49.337038 105.751495 45.4953261 104.175408 45.4953261"></polygon>
                    <polygon id="Fill-86" fill="#14284B" points="100.23519 18.8988587 101.811277 18.8988587 101.811277 17.3227717 100.23519 17.3227717"></polygon>
                    <polygon id="Fill-87" fill="#14284B" points="81.3221467 18.8988587 95.0475 18.8988587 95.0475 17.3227717 81.3221467 17.3227717"></polygon>
                    <polygon id="Fill-88" fill="#14284B" points="34.8267935 18.8988587 38.768587 18.8988587 38.768587 17.3227717 34.8267935 17.3227717"></polygon>
                    <path d="M52.1621739,51.2086413 L91.5643478,51.2086413 L91.5643478,22.8390761 L52.1621739,22.8390761 L52.1621739,51.2086413 Z M53.7382609,49.6325543 L89.9882609,49.6325543 L89.9882609,24.415163 L53.7382609,24.415163 L53.7382609,49.6325543 Z" id="Fill-89" fill="#14284B"></path>
                    <polygon id="Fill-90" fill="#F5CBD6" points="55.1630435 38.6141304 88.2608696 38.6141304 88.2608696 29.1576087 55.1630435 29.1576087"></polygon>
                    <polygon id="Fill-90-Copy" fill="#F5CBD6" points="39.4021739 33.8102174 46.092663 33.8102174 46.092663 27.4830163 39.4021739 27.4830163"></polygon>
                    <polygon id="Fill-91" fill="#DBDBD5" points="60.0426087 48.0564674 88.4121739 48.0564674 88.4121739 44.9042935 60.0426087 44.9042935"></polygon>
                    <polygon id="Fill-92" fill="#14284B" points="55.3143478 42.540163 75.8034783 42.540163 75.8034783 40.9640761 55.3143478 40.9640761"></polygon>
                    <polygon id="Fill-93" fill="#14284B" points="55.3143478 27.5665489 75.8034783 27.5665489 75.8034783 25.990462 55.3143478 25.990462"></polygon>
                    <polygon id="Fill-94" fill="#14284B" points="55.3143478 72.5031522 75.8034783 72.5031522 75.8034783 70.9270652 55.3143478 70.9270652"></polygon>
                    <polygon id="Fill-95" fill="#14284B" points="55.3143478 57.5303261 75.8034783 57.5303261 75.8034783 55.9542391 55.3143478 55.9542391"></polygon>
                    <polygon id="Fill-96" fill="#F5CBD6" points="82.1109783 59.8771196 101.024022 59.8771196 101.024022 56.7249457 82.1109783 56.7249457"></polygon>
                    <polygon id="Fill-97" fill="#14284B" points="82.8982337 63.0292935 95.5069293 63.0292935 95.5069293 61.4532065 82.8982337 61.4532065"></polygon>
                    <polygon id="Fill-98" fill="#14284B" points="82.8982337 66.1814674 95.5069293 66.1814674 95.5069293 64.6053804 82.8982337 64.6053804"></polygon>
                    <polygon id="Fill-99" fill="#14284B" points="82.8982337 69.3336413 95.5069293 69.3336413 95.5069293 67.7575543 82.8982337 67.7575543"></polygon>
                    <path d="M98.6591033,63.0292935 C98.5566576,63.0292935 98.454212,63.0048641 98.3596467,62.96625 C98.2650815,62.9268478 98.1783967,62.8716848 98.0995924,62.8007609 C97.9498641,62.6502446 97.8710598,62.4532337 97.8710598,62.24125 C97.8710598,62.1388043 97.8947011,62.0363587 97.9341033,61.9417935 C97.9735054,61.8472283 98.0286685,61.7597554 98.0995924,61.6817391 C98.1783967,61.6108152 98.2572011,61.5556522 98.3596467,61.51625 C98.6433424,61.390163 98.997962,61.4602989 99.2186141,61.6817391 C99.360462,61.8306793 99.4471467,62.0363587 99.4471467,62.24125 C99.4471467,62.4532337 99.3683424,62.6502446 99.2186141,62.8007609 C99.1398098,62.8716848 99.053125,62.9268478 98.9585598,62.96625 C98.8639946,63.0048641 98.7615489,63.0292935 98.6591033,63.0292935" id="Fill-100" fill="#14284B"></path>
                    <path d="M98.6591033,66.1814674 C98.4463315,66.1814674 98.2493207,66.101875 98.0995924,65.9450543 C97.9498641,65.8024185 97.8710598,65.6054076 97.8710598,65.3934239 C97.8710598,65.1885326 97.9577446,64.9828533 98.0995924,64.833913 C98.3911685,64.542337 98.9191576,64.542337 99.2186141,64.833913 C99.360462,64.9828533 99.4471467,65.1885326 99.4471467,65.3934239 C99.4471467,65.6054076 99.3683424,65.8024185 99.2186141,65.9450543 C99.0688859,66.101875 98.871875,66.1814674 98.6591033,66.1814674" id="Fill-101" fill="#14284B"></path>
                    <path d="M98.6591033,69.3336413 C98.5566576,69.3336413 98.454212,69.309212 98.3596467,69.2705978 C98.2650815,69.2311957 98.1783967,69.1760326 98.0995924,69.1051087 C97.9498641,68.9545924 97.8710598,68.7575815 97.8710598,68.5455978 C97.8710598,68.4431522 97.8947011,68.3407065 97.9341033,68.2461413 C97.9735054,68.1436957 98.0286685,68.0641033 98.0995924,67.986087 C98.3990489,67.6945109 98.9191576,67.6945109 99.2186141,67.986087 C99.289538,68.0641033 99.3447011,68.1436957 99.3841033,68.2461413 C99.4313859,68.3407065 99.4471467,68.4431522 99.4471467,68.5455978 C99.4471467,68.7575815 99.3683424,68.9545924 99.2186141,69.1051087 C99.0688859,69.2540489 98.871875,69.3336413 98.6591033,69.3336413" id="Fill-102" fill="#14284B"></path>
                    <path d="M36.4036685,37.0230707 L49.0123641,37.0230707 L49.0123641,24.414375 L36.4036685,24.414375 L36.4036685,37.0230707 Z M34.8275815,38.5991576 L50.5884511,38.5991576 L50.5884511,22.838288 L34.8275815,22.838288 L34.8275815,38.5991576 Z" id="Fill-103" fill="#14284B"></path>
                    <polygon id="Fill-105" fill="#14284B" points="34.8275815 42.540163 47.4362772 42.540163 47.4362772 40.9640761 34.8275815 40.9640761"></polygon>
                    <polygon id="Fill-106" fill="#14284B" points="34.8275815 45.692337 47.4362772 45.692337 47.4362772 44.11625 34.8275815 44.11625"></polygon>
                    <polygon id="Fill-107" fill="#14284B" points="34.8275815 48.8445109 47.4362772 48.8445109 47.4362772 47.2684239 34.8275815 47.2684239"></polygon>
                    <polygon id="Fill-108" fill="#14284B" points="34.8275815 51.9966848 47.4362772 51.9966848 47.4362772 50.4205978 34.8275815 50.4205978"></polygon>
                    <polygon id="Fill-109" fill="#14284B" points="34.8275815 55.1488587 47.4362772 55.1488587 47.4362772 53.5727717 34.8275815 53.5727717"></polygon>
                    <path d="M96.8024728,78.1833696 L105.039103,98.1271739 L108.563234,91.0387228 L115.172554,97.6480435 L116.287636,96.53375 L109.643641,89.8905435 L115.675326,86.2710598 L96.8024728,78.1833696 Z M104.905924,101.935 L93.8709511,75.2116576 L119.129321,86.0370109 L112.185082,90.2026087 L118.516223,96.53375 L115.172554,99.8766304 L108.999022,93.7030978 L104.905924,101.935 L104.905924,101.935 Z" id="Fill-110" fill="#14284B"></path>
                    <path d="M120.001685,2.30345109 C107.456033,2.30345109 97.2492935,12.5101902 97.2492935,25.0558424 C97.2492935,34.2940761 102.767174,42.5464674 111.305625,46.0832065 L111.841495,46.3046467 L111.789484,46.8822826 C111.635815,48.5600272 110.866685,50.0313043 109.713777,51.0841304 C112.089728,50.7429076 114.258424,49.6065489 115.934592,47.8011413 L116.2175,47.4969565 L116.628071,47.5576359 C117.744728,47.723913 118.879511,47.8074457 120.001685,47.8074457 C132.547337,47.8074457 142.754076,37.6014946 142.754076,25.0558424 C142.754076,12.5101902 132.547337,2.30345109 120.001685,2.30345109 Z M108.184973,52.7681793 L105.339348,52.7681793 L105.339348,51.1920924 C107.700326,51.1920924 109.672799,49.552962 110.136957,47.2967935 C101.329783,43.39125 95.6732065,34.728288 95.6732065,25.0558424 C95.6732065,11.6417663 106.586821,0.72736413 120.001685,0.72736413 C133.416549,0.72736413 144.330163,11.6417663 144.330163,25.0558424 C144.330163,38.4707065 133.416549,49.3835326 120.001685,49.3835326 C118.937826,49.3835326 117.862935,49.3126087 116.80144,49.173913 C114.525571,51.4631793 111.408859,52.7681793 108.184973,52.7681793 L108.184973,52.7681793 Z" id="Fill-111" fill="#14284B"></path>
                    <polygon id="Fill-112" fill="#14284B" points="110.48606 23.6279076 129.394375 23.6279076 129.394375 22.0518207 110.48606 22.0518207"></polygon>
                    <polygon id="Fill-113" fill="#14284B" points="110.48606 26.898288 129.394375 26.898288 129.394375 25.3222011 110.48606 25.3222011"></polygon>
                    <polygon id="Fill-114" fill="#14284B" points="110.48606 30.052038 129.394375 30.052038 129.394375 28.4759511 110.48606 28.4759511"></polygon>
                    <polygon id="Fill-115" fill="#14284B" points="131.961033 78.7515489 133.53712 78.7515489 133.53712 75.599375 131.961033 75.599375"></polygon>
                    <polygon id="Fill-116" fill="#14284B" points="131.961033 86.6319837 133.53712 86.6319837 133.53712 83.4798098 131.961033 83.4798098"></polygon>
                    <polygon id="Fill-117" fill="#14284B" points="135.113207 81.9037228 138.26538 81.9037228 138.26538 80.3276359 135.113207 80.3276359"></polygon>
                    <polygon id="Fill-118" fill="#14284B" points="127.232772 81.9037228 130.384946 81.9037228 130.384946 80.3276359 127.232772 80.3276359"></polygon>
                    <polygon id="Fill-119" fill="#14284B" points="6.58646739 126.062527 8.16255435 126.062527 8.16255435 122.910353 6.58646739 122.910353"></polygon>
                    <polygon id="Fill-120" fill="#14284B" points="6.58646739 133.942962 8.16255435 133.942962 8.16255435 130.790788 6.58646739 130.790788"></polygon>
                    <polygon id="Fill-121" fill="#14284B" points="9.7386413 129.214701 12.8908152 129.214701 12.8908152 127.638614 9.7386413 127.638614"></polygon>
                    <polygon id="Fill-122" fill="#14284B" points="1.85820652 129.214701 5.01038043 129.214701 5.01038043 127.638614 1.85820652 127.638614"></polygon>
                    <path d="M119.818859,75.2439674 C119.818859,76.4772554 118.81962,77.4764946 117.586332,77.4764946 C116.353043,77.4764946 115.353804,76.4772554 115.353804,75.2439674 C115.353804,74.0106793 116.353043,73.0106522 117.586332,73.0106522 C118.81962,73.0106522 119.818859,74.0106793 119.818859,75.2439674" id="Fill-123" fill="#BDDEE5"></path>
                    <path d="M24.4088587,28.7210326 C24.4088587,29.9543207 23.4088315,30.9543478 22.1755435,30.9543478 C20.9430435,30.9543478 19.9430163,29.9543207 19.9430163,28.7210326 C19.9430163,27.4885326 20.9430435,26.4885054 22.1755435,26.4885054 C23.4088315,26.4885054 24.4088587,27.4885326 24.4088587,28.7210326" id="Fill-124" fill="#BDDEE5"></path>
                    <polyline id="Fill-125" fill="#14284B" points="27.6603261 64.7369837 26.0842391 64.7369837 26.0842391 74.7971467 27.6603261 74.4685326 27.6603261 64.7369837"></polyline>
                    <path d="M19.9209511,124.122364 L19.9083424,128.900272 C19.9083424,131.036658 21.6475543,132.776658 23.7847283,132.776658 L34.9568207,132.776658 L34.9568207,131.200571 L23.7847283,131.200571 C22.5159783,131.200571 21.4844293,130.168234 21.4844293,128.900272 L21.4844293,124.335924 L26.191413,98.5732065 C25.6066848,99.1997011 24.9652174,99.7718207 24.2764674,100.285625 L19.9209511,124.122364" id="Fill-126" fill="#14284B"></path>
                    <path d="M97.5022554,81.942337 L81.3221467,81.942337 C80.8871467,81.942337 80.5341033,82.2945924 80.5341033,82.7303804 C80.5341033,83.1653804 80.8871467,83.5184239 81.3221467,83.5184239 L98.1531793,83.5184239 L97.5022554,81.942337" id="Fill-127" fill="#14284B"></path>
                    <polyline id="Fill-128" fill="#14284B" points="105.751495 81.1605978 105.751495 54.4593207 104.175408 54.4593207 104.175408 80.4852446 105.751495 81.1605978"></polyline>
                    <polyline id="Fill-129" fill="#14284B" points="98.8041033 85.0945109 33.2514946 85.0945109 33.2514946 11.0184239 98.7899185 11.0184239 98.7899185 9.44233696 31.6754076 9.44233696 31.6754076 86.6705978 99.4550272 86.6705978 98.8041033 85.0945109"></polyline>
                    <polyline id="Fill-130" fill="#434A4F" points="110.914755 90.0465761 111.031386 90.1624185 111.031386 89.9764402 110.914755 90.0465761"></polyline>
                    <polyline id="Fill-131" fill="#14284B" points="111.031386 83.4238587 111.031386 65.2602446 109.455299 65.2602446 109.455299 82.7477174 111.031386 83.4238587"></polyline>
                    <path d="M110.016386,93.6053804 L115.630408,124.335924 L115.630408,128.900272 C115.630408,130.168234 114.598071,131.200571 113.330897,131.200571 L103.912201,131.200571 L103.912201,132.776658 L113.330897,132.776658 C115.468071,132.776658 117.206495,131.036658 117.206495,128.900272 L117.206495,124.264212 L111.973886,95.5628804 L110.016386,93.6053804" id="Fill-132" fill="#14284B"></path>
                    <path d="M100.696196,89.6746196 L30.014212,89.6746196 C29.9826902,90.208125 29.9204348,90.73375 29.8313859,91.2507065 L101.34712,91.2507065 L100.696196,89.6746196" id="Fill-133" fill="#14284B"></path>
                    <polygon id="Fill-134" fill="#BDDEE5" points="55.3143478 68.5629348 81.3221467 68.5629348 81.3221467 59.106413 55.3143478 59.106413"></polygon>
                    <polygon id="Fill-135" fill="#DBDBD5" points="60.0426087 78.0194565 81.3221467 78.0194565 81.3221467 74.8672826 60.0426087 74.8672826"></polygon>
                    <polyline id="Fill-136" fill="#14284B" points="81.3221467 79.5955435 53.7382609 79.5955435 53.7382609 54.3781522 89.9882609 54.3781522 89.9882609 55.9369022 91.5643478 55.9369022 91.5643478 52.8020652 52.1621739 52.8020652 52.1621739 81.1716304 81.3221467 81.1716304 81.3221467 79.5955435"></polyline>
                    <polyline id="Fill-137" fill="#14284B" points="98.8041033 85.0945109 82.1101902 85.0945109 82.1101902 56.7249457 101.023234 56.7249457 101.023234 79.134538 102.599321 79.8098913 102.599321 55.1488587 80.5341033 55.1488587 80.5341033 86.6705978 99.4550272 86.6705978 98.8041033 85.0945109"></polyline>
                    <path d="M120.511549,139.85644 C120.511549,140.534158 119.996957,141.082636 119.361793,141.082636 C118.72663,141.082636 118.212038,140.534158 118.212038,139.85644 C118.212038,139.179511 118.72663,138.631033 119.361793,138.631033 C119.996957,138.631033 120.511549,139.179511 120.511549,139.85644" id="Fill-138" fill="#F5CBD6"></path>
                    <path d="M15.7671739,75.3156793 C15.586712,75.3156793 15.40625,75.3196196 15.225,75.326712 C11.6204891,75.4669837 8.28706522,77.0020924 5.83703804,79.6499185 C3.38779891,82.2977446 2.11589674,85.7414946 2.25616848,89.3452174 C2.39644022,92.9489402 3.93154891,96.2831522 6.579375,98.7323913 C9.22720109,101.182418 12.6780435,102.459049 16.2746739,102.313261 C23.7153804,102.023261 29.5327174,95.735462 29.2435054,88.2947554 C29.162337,86.2174728 28.6233152,84.2418478 27.6422011,82.4206793 L27.514538,82.1834783 L28.6958152,75.0579891 L21.4371467,76.5686685 L21.205462,76.4654348 C19.4804348,75.7026087 17.652962,75.3156793 15.7671739,75.3156793 Z M15.7348641,103.899592 C11.9294022,103.90038 8.31858696,102.488207 5.50921196,99.8892391 C2.55247283,97.1539402 0.837690217,93.4320109 0.681657609,89.4066848 C0.524836957,85.3821467 1.9448913,81.5364946 4.68019022,78.5797554 C7.41548913,75.6230163 11.1389946,73.9082337 15.1635326,73.7522011 C17.3913315,73.6670924 19.5639674,74.05875 21.6089402,74.9224457 L30.6265217,73.0469022 L29.1568207,81.9139674 C30.1726087,83.8809239 30.7313315,86.0054891 30.8172283,88.233288 C31.1411141,96.5416304 24.6444837,103.564674 16.3361413,103.887772 C16.1351902,103.895652 15.9350272,103.899592 15.7348641,103.899592 L15.7348641,103.899592 Z" id="Fill-139" fill="#14284B"></path>
                    <path d="M8.76540761,89.7305707 C8.92459239,89.9275815 15.6536957,96.8489674 15.6536957,96.8489674 C15.6536957,96.8489674 22.3827989,89.9275815 22.5419837,89.7305707 L22.548288,89.7219022 C23.1393207,88.9850815 23.4947283,88.05125 23.4947283,87.0338859 C23.4947283,84.6579348 21.56875,82.7327446 19.193587,82.7327446 C17.7246739,82.7327446 16.4299185,83.4695652 15.6536957,84.5925272 C14.8774728,83.4695652 13.5827174,82.7327446 12.1138043,82.7327446 C9.7386413,82.7327446 7.81266304,84.6579348 7.81266304,87.0338859 C7.81266304,88.05125 8.16807065,88.9850815 8.75910326,89.7219022 L8.76540761,89.7305707" id="Fill-140" fill="#F5CBD6"></path>
                    <path d="M9.37377717,89.228587 C9.65747283,89.5406522 13.0823098,93.072663 15.6536957,95.718125 C18.2558152,93.0411413 21.731875,89.4563315 21.9422826,89.2191304 C22.43875,88.5981522 22.7066848,87.8392663 22.7066848,87.0338859 C22.7066848,85.096875 21.1305978,83.520788 19.193587,83.520788 C18.0406793,83.520788 16.9602717,84.0881793 16.3022554,85.0401359 L15.6536957,85.9786957 L15.0051359,85.0401359 C14.3471196,84.0881793 13.266712,83.520788 12.1145924,83.520788 C10.1767935,83.520788 8.60070652,85.096875 8.60070652,87.0338859 C8.60070652,87.8392663 8.8686413,88.5981522 9.37377717,89.228587 Z M15.6536957,97.9790217 L15.0886685,97.3982337 C12.5661413,94.8032065 8.31070652,90.4208967 8.15152174,90.2238859 L8.12236413,90.1852717 C7.42258152,89.3144837 7.02461957,88.1852174 7.02461957,87.0338859 C7.02461957,84.227663 9.30836957,81.9447011 12.1145924,81.9447011 C13.4471739,81.9447011 14.7127717,82.467962 15.6536957,83.3797283 C16.5946196,82.467962 17.8610054,81.9447011 19.193587,81.9447011 C21.9998098,81.9447011 24.2827717,84.227663 24.2827717,87.0338859 C24.2827717,88.1852174 23.8848098,89.3144837 23.162962,90.2152174 C22.9966848,90.4208967 18.74125,94.8032065 16.2187228,97.3982337 L15.6536957,97.9790217 L15.6536957,97.9790217 Z" id="Fill-141" fill="#14284B"></path>
                </g>
            </g>
        </g>
    </g>
</svg>